[gd_scene load_steps=2 format=2]

[ext_resource path="res://assets/models/crates/crate_fragile_priority/crate_fragile_priority.glb" type="PackedScene" id=1]

[node name="crate_fragile_priority" instance=ExtResource( 1 )]
