[gd_scene load_steps=4 format=2]

[ext_resource path="res://components/powerups/ghost.tscn" type="PackedScene" id=1]
[ext_resource path="res://components/powerups_full/powerup.gd" type="Script" id=2]

[sub_resource type="CylinderShape" id=1]
radius = 0.4

[node name="Ghost" type="Area"]
script = ExtResource( 2 )

[node name="CollisionShape" type="CollisionShape" parent="."]
transform = Transform( 1, 0, 0, 0, 1, 0, 0, 0, 1, 0, 1, 0 )
shape = SubResource( 1 )

[node name="ghost" parent="." instance=ExtResource( 1 )]
transform = Transform( 0.5, 0, 0, 0, 0.5, 0, 0, 0, 0.5, 0, 0.5, 0.16 )
