[gd_scene load_steps=2 format=2]

[ext_resource path="res://components/models/walls/corner.tscn" type="PackedScene" id=1]

[node name="Corner" type="StaticBody"]

[node name="wall_corner" parent="." instance=ExtResource( 1 )]
transform = Transform( 0.5, 0, 0, 0, 0.5, 0, 0, 0, 0.5, 0.562, 0, -0.562 )
