[gd_scene load_steps=5 format=2]

[ext_resource path="res://components/models/walls/truck.tscn" type="PackedScene" id=1]
[ext_resource path="res://components/wall/wall.gd" type="Script" id=2]

[sub_resource type="BoxShape" id=1]
extents = Vector3( 0.45, 4, 1 )

[sub_resource type="BoxShape" id=2]
extents = Vector3( 2, 4, 2 )

[node name="TruckOpening" type="StaticBody"]
transform = Transform( 1, 0, 0, 0, 1, 0, 0, 0, 1, 0, 0, -0.5 )
script = ExtResource( 2 )

[node name="CollisionShape" type="CollisionShape" parent="."]
transform = Transform( 1, 0, 0, 0, 1, 0, 0, 0, 1, 3.05, 4, -0.8 )
shape = SubResource( 1 )

[node name="CollisionShape3" type="CollisionShape" parent="."]
transform = Transform( 1, 0, 0, 0, 1, 0, 0, 0, 1, -0.05, 4, -0.8 )
shape = SubResource( 1 )

[node name="CollisionShape2" type="CollisionShape" parent="."]
transform = Transform( 1, 0, 0, 0, 1, 0, 0, 0, 1, 1.5, 4, -2.75 )
shape = SubResource( 2 )

[node name="wall_straight" parent="." instance=ExtResource( 1 )]
transform = Transform( -2.18557e-08, 0, 0.5, 0, 0.5, 0, -0.5, 0, -2.18557e-08, 1.5, 0, 0.04 )
