[gd_scene load_steps=4 format=2]

[ext_resource path="res://components/_root-scenes/world.gd" type="Script" id=1]
[ext_resource path="res://components/hud/hud.tscn" type="PackedScene" id=2]

[sub_resource type="Environment" id=1]
ambient_light_color = Color( 0.423529, 0.423529, 0.423529, 1 )
auto_exposure_min_luma = 0.0
auto_exposure_max_luma = 16.0
auto_exposure_speed = 2.72
adjustment_enabled = true
adjustment_brightness = 1.23
adjustment_saturation = 1.5

[node name="World" type="Spatial"]
script = ExtResource( 1 )

[node name="Camera" type="Camera" parent="."]
transform = Transform( 1, 0, 0, 0, 0.496728, 0.839335, 0, -0.76665, 0.543822, 0, 39.006, 15.772 )
current = true
fov = 30.0
size = 18.0

[node name="HUD" parent="Camera" instance=ExtResource( 2 )]

[node name="PlayerAnchor" type="Position3D" parent="."]

[node name="DropsAnchor" type="Position3D" parent="."]

[node name="RoundTimer" type="Timer" parent="."]
wait_time = 600.0
one_shot = true

[node name="WorldEnvironment" type="WorldEnvironment" parent="."]
environment = SubResource( 1 )

[node name="DirectionalLight" type="DirectionalLight" parent="."]
transform = Transform( 0.969382, -0.021838, -0.244585, 0.14147, 0.863794, 0.483577, 0.20071, -0.503372, 0.840435, 0, 0, 0 )
shadow_enabled = true
directional_shadow_blend_splits = true
directional_shadow_normal_bias = 0.0
directional_shadow_bias_split_scale = 1.0
directional_shadow_depth_range = 1
directional_shadow_max_distance = 150.0
