<?xml version="1.0" encoding="UTF-8" standalone="no"?>
<!-- Created with Inkscape (http://www.inkscape.org/) -->

<svg
   width="256.0px"
   height="256.0px"
   viewBox="0 0 256.0 256.0"
   version="1.1"
   id="SVGRoot"
   sodipodi:docname="box.svg"
   inkscape:version="1.2.2 (732a01da63, 2022-12-09)"
   inkscape:export-filename="..\..\src\assets\ui\orders\envelope.png"
   inkscape:export-xdpi="96"
   inkscape:export-ydpi="96"
   xmlns:inkscape="http://www.inkscape.org/namespaces/inkscape"
   xmlns:sodipodi="http://sodipodi.sourceforge.net/DTD/sodipodi-0.dtd"
   xmlns="http://www.w3.org/2000/svg"
   xmlns:svg="http://www.w3.org/2000/svg">
  <sodipodi:namedview
     id="namedview3732"
     pagecolor="#ffffff"
     bordercolor="#000000"
     borderopacity="0.25"
     inkscape:showpageshadow="2"
     inkscape:pageopacity="0.0"
     inkscape:pagecheckerboard="0"
     inkscape:deskcolor="#d1d1d1"
     inkscape:document-units="px"
     showgrid="true"
     inkscape:zoom="1.5287163"
     inkscape:cx="143.58452"
     inkscape:cy="140.96794"
     inkscape:window-width="1920"
     inkscape:window-height="991"
     inkscape:window-x="-9"
     inkscape:window-y="-9"
     inkscape:window-maximized="1"
     inkscape:current-layer="layer3">
    <inkscape:grid
       type="xygrid"
       id="grid3855" />
  </sodipodi:namedview>
  <defs
     id="defs3727" />
  <g
     inkscape:label="Layer 1"
     inkscape:groupmode="layer"
     id="layer1">
    <g
       inkscape:groupmode="layer"
       id="layer3"
       inkscape:label="background 1"
       style="display:inline"
       transform="matrix(3.7795276,0,0,3.7795276,3.4853685,-27.057587)">
      <rect
         style="display:inline;fill:#d45500;stroke-width:0.18648"
         id="rect8862-9"
         width="34.648415"
         height="36.019318"
         x="21.521273"
         y="18.560698" />
      <rect
         style="display:inline;fill:#aa4400;stroke-width:0.18648"
         id="rect8862"
         width="34.648415"
         height="36.019318"
         x="9.7962275"
         y="31.334127" />
      <path
         style="fill:#ff6600;stroke-width:0.312786"
         d="M 9.7219719,31.317697 21.563945,18.495431 56.07773,18.702243 44.235756,31.421102 Z"
         id="path8960" />
      <path
         style="fill:#ff6600;stroke-width:0.324034"
         d="M 44.495802,67.150601 56.279279,54.332644 44.287244,54.224928 Z"
         id="path8962" />
      <path
         style="fill:#d45500;stroke-width:0.318509"
         d="M 43.682605,31.631275 55.971961,18.810691 56.178503,54.435102 44.313077,67.522139 Z"
         id="path8964"
         sodipodi:nodetypes="ccccc" />
    </g>
  </g>
</svg>
