<?xml version="1.0" encoding="UTF-8" standalone="no"?>
<!-- Created with Inkscape (http://www.inkscape.org/) -->

<svg
   width="256.0px"
   height="256.0px"
   viewBox="0 0 256.0 256.0"
   version="1.1"
   id="SVGRoot"
   sodipodi:docname="gardenhose.svg"
   inkscape:version="1.2.2 (732a01da63, 2022-12-09)"
   inkscape:export-filename="..\..\src\assets\ui\items\gardenhose.png"
   inkscape:export-xdpi="96"
   inkscape:export-ydpi="96"
   xmlns:inkscape="http://www.inkscape.org/namespaces/inkscape"
   xmlns:sodipodi="http://sodipodi.sourceforge.net/DTD/sodipodi-0.dtd"
   xmlns="http://www.w3.org/2000/svg"
   xmlns:svg="http://www.w3.org/2000/svg">
  <sodipodi:namedview
     id="namedview3732"
     pagecolor="#ffffff"
     bordercolor="#000000"
     borderopacity="0.25"
     inkscape:showpageshadow="2"
     inkscape:pageopacity="0.0"
     inkscape:pagecheckerboard="0"
     inkscape:deskcolor="#d1d1d1"
     inkscape:document-units="px"
     showgrid="true"
     inkscape:zoom="2.1619314"
     inkscape:cx="179.23788"
     inkscape:cy="145.47178"
     inkscape:window-width="1920"
     inkscape:window-height="991"
     inkscape:window-x="-9"
     inkscape:window-y="-9"
     inkscape:window-maximized="1"
     inkscape:current-layer="layer3">
    <inkscape:grid
       type="xygrid"
       id="grid3855" />
  </sodipodi:namedview>
  <defs
     id="defs3727" />
  <g
     inkscape:label="Layer 1"
     inkscape:groupmode="layer"
     id="layer1">
    <g
       inkscape:groupmode="layer"
       id="layer3"
       inkscape:label="background 1"
       style="display:inline"
       transform="matrix(3.7795276,0,0,3.7795276,3.4853685,-27.057587)">
      <path
         style="fill:#008000;stroke-width:0.343974"
         d="m 58.782247,21.5533 c 0,0 -34.599913,-5.435307 -40.142235,-0.79931 -5.542318,4.635997 -20.6649348,16.945367 -6.254903,30.054047 14.410032,13.10868 26.761487,12.149507 36.262609,10.391026 9.50112,-1.758479 18.052125,-20.941915 8.392655,-24.299016 C 47.380901,33.542946 27.903606,21.073713 22.519638,31.464741 17.135669,41.855767 41.205174,55.923619 43.26375,50.967899 45.322325,46.012178 40.017532,50.008728 40.017532,50.008728 L 25.369973,37.379632 c 0,0 -1.898241,-3.327124 2e-6,-6.154685 3.021865,-4.501272 13.350245,0.399656 30.561935,8.073029 3.662341,1.632757 1.932386,6.851291 1.49061,9.269437 -1.128892,6.179214 -9.17022,10.426546 -10.675026,10.793239 -1.713214,0.417477 -7.61477,1.460464 -17.805758,-2.34215 -3.467317,-1.293778 -7.464524,-3.44713 -11.806066,-6.450256 -17.102017,-11.829785 1.900224,-27.016673 1.900224,-27.016673 0,0 2.610495,-1.857703 9.108569,-2.030559 10.742698,-0.285767 27.719514,1.124229 28.737557,1.710836 1.200905,0.691971 1.900227,-1.67855 1.900227,-1.67855 z"
         id="path9241"
         sodipodi:nodetypes="cssssssccsssssscssc" />
      <path
         style="fill:#008000;stroke-width:0.323103"
         d="m 48.745531,24.536574 c 0,0 11.929584,-4.728633 10.029124,-1.937359 -1.900461,2.791276 -15.487122,4.443829 -15.487122,4.443829 0,0 -9.231272,-0.149092 -12.832146,-0.930651 -3.600869,-0.781557 -11.17486,-1.228307 -13.103171,2.233021 -0.462642,0.830443 -8.6020831,7.81557 1.800436,16.301048 10.402517,8.48548 13.003147,12.504914 18.004358,10.383546 5.001209,-2.121371 13.903366,-5.247599 11.402761,-8.373828 -2.500606,-3.126229 -5.801405,-12.169959 -15.303706,-10.941797 -9.5023,1.22816 -4.701136,7.145663 -4.701136,7.145663 l -3.3008,-1.674766 -1.600387,-2.233018 c 0,0 -1.900463,-4.577695 1.800435,-4.800995 3.700897,-0.223301 6.401551,-3.237879 11.002665,-0.558255 4.601112,2.679626 11.802856,4.577693 12.60305,6.364106 0.800194,1.786417 2.200531,7.145667 1.400339,9.155385 -0.800193,2.009716 -14.782735,10.722957 -18.383608,7.931681 -2.105251,-1.631919 -9.338703,-5.397068 -14.325487,-10.533083 -3.542731,-3.648748 -5.441015,-7.578822 -5.57535,-8.335938 -0.309273,-1.743061 0.775364,-7.93168 3.27597,-10.164703 2.500605,-2.23302 5.273874,-4.473023 6.601598,-4.46604 3.925894,0.02065 11.835308,1.128683 15.339548,1.643046 3.673722,0.53924 11.352629,-0.650892 11.352629,-0.650892 z"
         id="path9247"
         sodipodi:nodetypes="cscsssssscccssssssssssc" />
      <path
         style="display:inline;fill:#ffcc00;stroke-width:0.343974"
         d="m 40.898287,48.197269 2.911268,3.730303 7.61408,-7.008447 1.679577,-3.95638 -1.679577,-1.582554 H 49.07223 Z"
         id="path9245" />
    </g>
  </g>
</svg>
