<?xml version="1.0" encoding="UTF-8" standalone="no"?>
<!-- Created with Inkscape (http://www.inkscape.org/) -->

<svg
   width="256.0px"
   height="256.0px"
   viewBox="0 0 256.0 256.0"
   version="1.1"
   id="SVGRoot"
   sodipodi:docname="kwardium.svg"
   inkscape:version="1.2.2 (732a01da63, 2022-12-09)"
   inkscape:export-filename="..\..\src\assets\ui\items\kwardium.png"
   inkscape:export-xdpi="96"
   inkscape:export-ydpi="96"
   xmlns:inkscape="http://www.inkscape.org/namespaces/inkscape"
   xmlns:sodipodi="http://sodipodi.sourceforge.net/DTD/sodipodi-0.dtd"
   xmlns="http://www.w3.org/2000/svg"
   xmlns:svg="http://www.w3.org/2000/svg">
  <sodipodi:namedview
     id="namedview3732"
     pagecolor="#ffffff"
     bordercolor="#000000"
     borderopacity="0.25"
     inkscape:showpageshadow="2"
     inkscape:pageopacity="0.0"
     inkscape:pagecheckerboard="0"
     inkscape:deskcolor="#d1d1d1"
     inkscape:document-units="px"
     showgrid="true"
     inkscape:zoom="2.1619314"
     inkscape:cx="135.29569"
     inkscape:cy="111.24312"
     inkscape:window-width="1920"
     inkscape:window-height="991"
     inkscape:window-x="-9"
     inkscape:window-y="-9"
     inkscape:window-maximized="1"
     inkscape:current-layer="layer3">
    <inkscape:grid
       type="xygrid"
       id="grid3855" />
  </sodipodi:namedview>
  <defs
     id="defs3727" />
  <g
     inkscape:label="Layer 1"
     inkscape:groupmode="layer"
     id="layer1">
    <g
       inkscape:groupmode="layer"
       id="layer3"
       inkscape:label="background 1"
       style="display:inline"
       transform="matrix(3.7795276,0,0,3.7795276,3.4853685,-27.057587)">
      <path
         style="fill:#999999;stroke-width:0.315069"
         d="m 5.8088872,34.808256 2.7927576,-8.669642 7.7903232,1.733927 13.228851,26.008927 -6.761412,5.490774 z"
         id="path9460" />
      <path
         style="fill:#808080;stroke-width:0.315069"
         d="m 20.360623,35.530724 7.937312,-8.236158 7.496347,0.144494 2.939745,-2.167411 5.438528,1.155952 c 0,0 -6.173461,31.499702 -6.173461,32.366665 0,0.866965 -11.171033,-2.600894 -11.171033,-2.600894 z"
         id="path9462" />
      <path
         style="fill:#999999;stroke-width:0.315069"
         d="m 38.881014,42.032959 8.231287,-11.993006 6.614426,-1.733929 6.614425,2.167411 1.763847,4.768301 -25.869755,21.240624 z"
         id="path9464" />
      <path
         style="fill:#2b0000;stroke-width:0.315069"
         d="m 14.995588,47.740473 -5.5120202,1.806175 -2.0578213,4.623808 5.7325015,4.190327 4.850579,-1.878422 4.924074,3.178871 9.480677,-5.490776 10.436092,4.334821 4.556604,-2.745384 8.378275,-0.866966 -7.349362,-4.623808 -3.683599,-1.564643 -4.626405,3.696994 -2.24786,2.100296 0.580563,1.622991 -0.32811,3.418275 -3.658377,-1.037755 -7.533096,-2.38415 -6.9084,-1.372695 z"
         id="path9466"
         sodipodi:nodetypes="cccccccccccccccccccc" />
    </g>
  </g>
</svg>
