<?xml version="1.0" encoding="UTF-8" standalone="no"?>
<!-- Created with Inkscape (http://www.inkscape.org/) -->

<svg
   width="256.0px"
   height="256.0px"
   viewBox="0 0 256.0 256.0"
   version="1.1"
   id="SVGRoot"
   sodipodi:docname="tshirts.svg"
   inkscape:version="1.2.2 (732a01da63, 2022-12-09)"
   inkscape:export-filename="..\..\src\assets\ui\items\tshirts.png"
   inkscape:export-xdpi="96"
   inkscape:export-ydpi="96"
   xmlns:inkscape="http://www.inkscape.org/namespaces/inkscape"
   xmlns:sodipodi="http://sodipodi.sourceforge.net/DTD/sodipodi-0.dtd"
   xmlns="http://www.w3.org/2000/svg"
   xmlns:svg="http://www.w3.org/2000/svg">
  <sodipodi:namedview
     id="namedview3732"
     pagecolor="#ffffff"
     bordercolor="#000000"
     borderopacity="0.25"
     inkscape:showpageshadow="2"
     inkscape:pageopacity="0.0"
     inkscape:pagecheckerboard="0"
     inkscape:deskcolor="#d1d1d1"
     inkscape:document-units="px"
     showgrid="true"
     inkscape:zoom="2.1619314"
     inkscape:cx="151.02237"
     inkscape:cy="149.17217"
     inkscape:window-width="1920"
     inkscape:window-height="991"
     inkscape:window-x="-9"
     inkscape:window-y="-9"
     inkscape:window-maximized="1"
     inkscape:current-layer="layer3">
    <inkscape:grid
       type="xygrid"
       id="grid3855" />
  </sodipodi:namedview>
  <defs
     id="defs3727" />
  <g
     inkscape:label="Layer 1"
     inkscape:groupmode="layer"
     id="layer1">
    <g
       inkscape:groupmode="layer"
       id="layer3"
       inkscape:label="background 1"
       style="display:inline"
       transform="matrix(3.7795276,0,0,3.7795276,3.4853685,-27.057587)">
      <rect
         style="fill:#800080;stroke-width:0.192663"
         id="rect9649"
         width="23.347191"
         height="17.760275"
         x="28.977867"
         y="31.513546"
         ry="0.31875908"
         rx="0.20101237" />
      <path
         style="fill:#cccccc;stroke-width:0.319223"
         d="M 33.396852,31.922481 42.035634,44.318726 48.084341,31.396029 50.298403,31.284348 42.328472,46.626734 41.559768,46.515052 31.749625,31.92248 Z"
         id="path9703"
         sodipodi:nodetypes="cccccccc" />
      <path
         style="fill:#800080;stroke-width:0.319223"
         d="m 31.353373,31.633564 c 0,0 -3.727245,-0.21058 -5.073194,1.263491 -1.345952,1.474073 -1.967158,3.369309 -2.070692,4.948674 -0.103537,1.579364 -0.20707,25.164526 -0.20707,25.164526 0,0 0.05177,0.552779 0.569437,1.289815 0.517674,0.737034 2.122461,0.921295 4.19315,0.816005 2.070694,-0.105294 26.608393,0.421161 27.747273,-0.421165 1.13888,-0.842329 1.242415,-3.685181 1.13888,-5.475126 C 57.54762,57.429835 56.9379,34.68171 56.9379,34.68171 c 0,0 -0.03924,-0.713664 -0.755065,-1.721881 -0.53086,-0.747699 -3.190735,-1.536846 -4.536682,-1.431556 -1.345949,0.105293 -8.593372,15.793636 -8.593372,15.793636 L 41.9139,47.006038 39.843211,45.321383 Z"
         id="path9709"
         sodipodi:nodetypes="csscsssscsscccc" />
      <path
         style="fill:#999999;stroke-width:0.319223"
         d="m 17.363642,18.120198 c 0,0 -3.934315,-0.210582 -4.451987,0.315873 -0.517673,0.526454 -1.449485,1.158199 -1.449485,3.790472 0,2.632272 0.103537,32.113727 0.103537,32.113727 0,0 0.122943,1.493055 0.621208,1.895236 0.456744,0.368666 0.621207,1.158199 3.520176,1.052909 2.898969,-0.105293 8.282768,-0.210581 8.282768,-0.210581 l 0.414137,-18.531201 c 0,0 -0.0098,-0.622602 0.207071,-2.211109 0.145342,-1.064585 1.297323,-3.641568 2.746805,-3.957441 1.449485,-0.315872 21.169683,-0.570066 21.169683,-0.570066 0,0 0.517674,-0.318066 0.517674,-1.052909 0,-2.000529 0.152159,-10.036395 0.152159,-10.036395 0,0 -0.13655,-1.81367 -1.189121,-2.447787 -1.680713,-1.012541 -29.913601,-0.172261 -29.913601,-0.172261 z"
         id="path9711"
         sodipodi:nodetypes="csscssccsscscscc" />
      <path
         style="display:inline;fill:#800080;stroke-width:0.319223"
         d="m 15.240769,26.599171 c 0,0 -0.439261,4.764923 0,6.626221 0.439259,1.861296 0.585679,2.308008 2.48914,2.456912 1.90346,0.148904 4.905071,0.446712 5.051491,-1.935749 0.14642,-2.382461 0,-7.668548 0,-7.668548 z"
         id="path9705"
         inkscape:label="path9705" />
      <path
         style="display:inline;fill:#ff00ff;stroke-width:0.338409"
         d="m 14.883782,28.162661 8.556508,-0.595615 -0.246823,-1.56349 -8.391959,0.670066 z"
         id="path9707" />
    </g>
  </g>
</svg>
