[gd_scene load_steps=6 format=2]

[ext_resource path="res://assets/ui/powerups/juggling.png" type="Texture" id=1]
[ext_resource path="res://assets/ui/circle.png" type="Texture" id=2]
[ext_resource path="res://assets/fonts/AmaticSC-Bold.ttf" type="DynamicFontData" id=3]
[ext_resource path="res://components/hud/powerups/player_powerup.gd" type="Script" id=4]

[sub_resource type="DynamicFont" id=1]
size = 20
extra_spacing_bottom = -12
extra_spacing_char = 2
font_data = ExtResource( 3 )

[node name="PlayerPowerup" type="Control"]
margin_right = 64.0
margin_bottom = 64.0
rect_min_size = Vector2( 64, 64 )
script = ExtResource( 4 )

[node name="Progress" type="TextureProgress" parent="."]
unique_name_in_owner = true
anchor_right = 1.0
anchor_bottom = 1.0
size_flags_horizontal = 9
size_flags_vertical = 9
value = 75.0
texture_under = ExtResource( 2 )
texture_progress = ExtResource( 2 )
fill_mode = 4
tint_under = Color( 0, 0.501961, 0.25098, 0.25098 )
tint_progress = Color( 0, 0.501961, 0.25098, 1 )
nine_patch_stretch = true
__meta__ = {
"_edit_use_anchors_": true
}

[node name="MarginContainer" type="MarginContainer" parent="."]
anchor_right = 1.0
anchor_bottom = 1.0
custom_constants/margin_right = 8
custom_constants/margin_top = 8
custom_constants/margin_left = 8
custom_constants/margin_bottom = 8

[node name="IconTextureRect" type="TextureRect" parent="MarginContainer"]
unique_name_in_owner = true
margin_left = 8.0
margin_top = 8.0
margin_right = 56.0
margin_bottom = 56.0
texture = ExtResource( 1 )
expand = true
stretch_mode = 6

[node name="NoPowerupLabel" type="Label" parent="."]
unique_name_in_owner = true
anchor_right = 1.0
anchor_bottom = 1.0
custom_fonts/font = SubResource( 1 )
text = "no
power
up"
align = 1

[node name="AnimationPlayer" type="AnimationPlayer" parent="."]
