[gd_resource type="SpatialMaterial" load_steps=3 format=2]

[sub_resource type="Image" id=1]
data = {
"data": PoolByteArray( 232, 193, 112, 255, 222, 158, 65, 255, 190, 119, 43, 255, 136, 75, 43, 255, 96, 44, 44, 255, 52, 28, 39, 255, 235, 237, 233, 255, 199, 207, 204, 255, 168, 181, 178, 255, 129, 151, 150, 255, 87, 114, 119, 255, 57, 74, 80, 255, 32, 46, 55, 255, 21, 29, 40, 255, 16, 20, 31, 255, 9, 10, 20, 255, 0, 0, 0, 0, 0, 0, 0, 0, 164, 221, 219, 255, 115, 190, 211, 255, 79, 143, 186, 255, 60, 94, 139, 255, 37, 58, 94, 255, 23, 32, 56, 255, 231, 213, 179, 255, 215, 181, 148, 255, 192, 148, 115, 255, 173, 119, 87, 255, 122, 72, 65, 255, 77, 43, 50, 255, 218, 134, 62, 255, 207, 87, 60, 255, 165, 48, 48, 255, 117, 36, 56, 255, 65, 29, 49, 255, 36, 21, 39, 255 ),
"format": "RGBA8",
"height": 6,
"mipmaps": false,
"width": 6
}

[sub_resource type="ImageTexture" id=2]
flags = 19
image = SubResource( 1 )
size = Vector2( 6, 6 )

[resource]
resource_name = "Material.006"
params_cull_mode = 2
albedo_texture = SubResource( 2 )
roughness = 0.5
