[gd_scene load_steps=2 format=2]

[ext_resource path="res://assets/models/packages/package_fragile/package_fragile.glb" type="PackedScene" id=1]

[node name="package_fragile" instance=ExtResource( 1 )]
