[gd_scene load_steps=2 format=2]

[ext_resource path="res://assets/models/seagull/wing_left/wing_left.glb" type="PackedScene" id=1]

[node name="wing_left" instance=ExtResource( 1 )]

[node name="Wing__Left001" parent="." index="0"]
transform = Transform( 1, 0, 0, 0, -1.19209e-07, -1, 0, 1, -1.19209e-07, 0.35, -1.2, 0 )
